<?xml version="1.0" encoding="utf-8"?>
<!-- Generator: Adobe Illustrator 16.0.0, SVG Export Plug-In . SVG Version: 6.00 Build 0)  -->
<!DOCTYPE svg PUBLIC "-//W3C//DTD SVG 1.1//EN" "http://www.w3.org/Graphics/SVG/1.1/DTD/svg11.dtd">
<svg version="1.1" id="Layer_1" xmlns="http://www.w3.org/2000/svg" xmlns:xlink="http://www.w3.org/1999/xlink" x="0px" y="0px"
	 width="97.141px" height="163.574px" viewBox="0 0 97.141 163.574" enable-background="new 0 0 97.141 163.574"
	 xml:space="preserve">
<path fill-rule="evenodd" clip-rule="evenodd" d="M96.532,106.532c-2.456-15.477-9.642-28.87-17.415-42.079
	c-9.092-15.45-19.195-30.349-25.56-47.278C51.471,11.623,49.902,5.925,48.57,0c-1.332,5.925-2.9,11.623-4.987,17.175
	c-6.364,16.93-16.468,31.828-25.56,47.278C10.25,77.662,3.064,91.056,0.608,106.532c-4.023,25.357,12.3,49.968,37.336,55.784
	c3.553,0.825,7.111,1.226,10.626,1.258c3.515-0.032,7.072-0.433,10.626-1.258C84.232,156.5,100.555,131.89,96.532,106.532z
	 M29.581,111.598c0.254,2.832,0.644,6.202-0.085,9c-0.845,3.243-2.48,5.588-6.119,5.938c-3.97,0.382-6.512-2.056-7.954-5.58
	c-3.011-7.358-1.103-22.418,11.749-45.953c4.854-8.89,9.845-17.218,13.074-26.572C40.245,48.43,27.578,89.264,29.581,111.598z"/>
</svg>
